<?xml version="1.0" standalone="no"?>
<!DOCTYPE svg PUBLIC "-//W3C//DTD SVG 20010904//EN"
 "http://www.w3.org/TR/2001/REC-SVG-20010904/DTD/svg10.dtd">
<svg version="1.0" xmlns="http://www.w3.org/2000/svg"
 width="1538.000000pt" height="1538.000000pt" viewBox="0 0 1538.000000 1538.000000"
 preserveAspectRatio="xMidYMid meet">
<metadata>
Created by potrace 1.14, written by Peter Selinger 2001-2017
</metadata>
<g transform="translate(0.000000,1538.000000) scale(0.100000,-0.100000)"
fill="#000000" stroke="none">
<path d="M7500 14924 c-864 -39 -2266 -207 -4167 -500 -664 -102 -1025 -162
-1033 -171 -4 -4 -53 -123 -108 -263 -758 -1928 -939 -3137 -726 -4845 63
-510 155 -990 284 -1490 21 -82 55 -215 75 -295 92 -374 267 -870 458 -1303
l65 -146 -217 -71 c-394 -127 -585 -178 -1987 -523 l-131 -32 639 -714 c574
-641 638 -716 633 -740 -3 -14 -122 -435 -264 -936 -142 -500 -257 -911 -256
-913 7 -8 1461 355 1738 434 388 111 939 308 1481 528 l259 105 116 -111 c330
-317 710 -620 1381 -1098 157 -112 660 -473 1118 -803 587 -422 836 -596 845
-589 22 16 1645 1184 1867 1342 723 515 1084 800 1430 1129 l145 137 90 -38
c145 -63 645 -261 835 -331 568 -211 877 -300 1925 -556 578 -141 619 -151
623 -146 2 2 -113 417 -256 922 -143 505 -262 925 -264 934 -2 11 233 280 622
714 344 383 631 705 638 715 12 16 -2 21 -205 70 -437 105 -1333 330 -1505
379 -187 53 -608 189 -608 196 0 2 27 65 59 139 162 364 327 815 415 1131 42
151 193 761 226 910 111 509 200 1132 242 1695 17 226 17 934 0 1135 -74 879
-263 1656 -661 2717 -184 490 -235 611 -262 620 -30 9 -905 148 -1409 223
-1497 224 -2682 368 -3430 419 -226 16 -593 26 -720 20z m655 -435 c841 -56
2343 -247 4050 -514 154 -24 343 -54 420 -66 77 -12 145 -27 151 -33 22 -21
228 -577 346 -931 339 -1022 471 -1816 455 -2725 -11 -599 -84 -1230 -218
-1887 -45 -221 -138 -615 -148 -624 -3 -4 -67 18 -141 48 -290 117 -769 278
-1112 374 l-118 32 0 1699 0 1698 -375 0 -375 0 -2 -582 -3 -583 -497 -3 -498
-2 0 585 0 585 -375 0 -375 0 0 -1471 0 -1471 -52 6 c-75 9 -397 36 -433 36
-29 0 -28 2 26 38 98 65 179 136 175 153 -3 16 -370 624 -387 644 -6 5 -39
-21 -87 -70 -95 -97 -195 -163 -306 -204 -119 -43 -198 -54 -339 -49 -104 4
-136 9 -217 37 -274 93 -473 299 -556 576 -36 121 -39 307 -6 430 71 263 259
476 507 576 107 42 193 59 312 59 237 0 431 -80 598 -249 44 -45 83 -81 87
-81 8 0 389 627 394 649 2 10 -20 36 -59 67 -204 168 -433 278 -697 336 -91
19 -134 22 -325 22 -206 0 -227 -1 -340 -28 -621 -145 -1081 -614 -1217 -1240
-19 -87 -22 -132 -22 -321 0 -206 1 -227 28 -340 62 -264 181 -499 360 -707
67 -78 188 -188 260 -237 l40 -26 -100 -7 c-54 -3 -187 -11 -294 -18 -192 -11
-495 -34 -597 -46 l-53 -6 0 1471 0 1471 -370 0 -370 0 -2 -582 -3 -583 -497
-3 -498 -2 0 585 0 585 -375 0 -375 0 -2 -1697 -3 -1697 -240 -71 c-377 -112
-879 -285 -1071 -370 -31 -14 -58 -25 -59 -25 -7 0 -126 504 -160 672 -46 234
-97 545 -129 793 -181 1403 -78 2421 388 3820 95 285 276 782 315 865 l16 35
140 22 c914 148 2087 318 2880 417 806 101 1304 149 1865 180 98 5 496 -3 665
-15z m-28 -3060 c243 -27 494 -122 680 -258 l42 -30 -105 -173 c-57 -95 -108
-174 -112 -176 -5 -1 -29 13 -54 32 -247 189 -608 246 -913 145 -323 -107
-560 -353 -662 -685 -25 -83 -27 -102 -27 -274 0 -174 1 -190 27 -274 131
-422 488 -708 917 -733 234 -13 448 47 645 182 53 36 70 44 77 33 37 -56 200
-329 200 -335 0 -4 -20 -22 -44 -38 l-44 -31 -114 8 c-285 18 -678 28 -1069
28 l-424 0 -69 57 c-256 209 -427 496 -500 837 -30 144 -30 389 0 532 64 300
187 529 397 739 162 162 330 269 530 338 222 77 411 100 622 76z m-3997 -614
l0 -585 665 0 665 0 2 583 3 582 205 0 205 0 3 -1317 2 -1318 -22 -4 c-34 -7
-352 -46 -377 -46 l-21 0 0 550 0 550 -665 0 -665 0 -2 -682 -3 -681 -195 -53
c-107 -29 -201 -53 -207 -54 -10 0 -13 311 -13 1523 0 838 3 1527 7 1530 3 4
98 7 210 7 l203 0 0 -585z m5790 0 l0 -585 665 0 665 0 2 583 3 582 208 3 207
2 0 -1535 c0 -844 -3 -1535 -7 -1535 -5 1 -98 25 -208 54 l-200 53 -3 687 -2
686 -665 0 -665 0 0 -555 c0 -533 -1 -555 -18 -555 -11 0 -104 11 -208 25
-104 14 -190 25 -191 25 -6 0 -2 2637 4 2643 3 4 98 7 210 7 l203 0 0 -585z
m-4622 -1727 l2 -558 -22 -4 c-13 -3 -135 -24 -273 -46 -137 -23 -350 -61
-472 -86 -123 -24 -225 -44 -228 -44 -3 0 -5 293 -5 650 l0 650 498 -2 497 -3
3 -557z m5790 -90 c1 -357 -1 -648 -4 -648 -4 0 -120 22 -258 49 -138 27 -354
66 -481 86 -126 21 -236 39 -242 41 -10 3 -13 124 -13 564 l0 560 498 -2 497
-3 3 -647z m-3413 -1233 c346 -72 563 -427 469 -764 -43 -152 -168 -310 -301
-379 -114 -60 -188 -72 -440 -72 l-223 0 0 615 0 615 213 0 c147 0 233 -5 282
-15z m1125 -5 c212 -11 391 -20 399 -20 11 0 13 -21 8 -121 -3 -66 -7 -123
-10 -125 -2 -2 -134 2 -293 10 -158 9 -290 13 -292 11 -3 -2 -7 -56 -10 -119
l-5 -114 84 -6 c46 -3 137 -8 203 -12 l119 -6 -7 -52 c-3 -28 -6 -84 -6 -124
l0 -74 -117 6 c-65 4 -157 9 -204 12 l-86 6 -5 -119 c-3 -65 -5 -119 -4 -120
1 -1 98 -7 216 -12 118 -6 251 -14 295 -17 l80 -5 -3 -117 c-2 -64 -7 -120
-10 -124 -6 -5 -832 30 -839 36 -1 1 11 274 27 607 16 332 30 607 30 612 0 9
-16 10 430 -13z m-2225 -25 c180 -47 330 -202 364 -377 11 -57 55 -797 48
-805 -3 -2 -58 -7 -124 -10 l-120 -6 -6 78 c-4 43 -7 98 -7 122 0 34 -3 43
-17 43 -58 -1 -465 -28 -467 -31 -2 -2 0 -56 3 -119 4 -63 6 -117 4 -119 -4
-5 -236 -19 -242 -15 -2 2 -14 176 -26 387 -25 434 -23 473 30 585 100 212
337 325 560 267z m3340 -69 c33 -15 74 -41 92 -58 l31 -30 59 28 c51 26 69 29
153 29 87 0 101 -3 161 -32 123 -61 199 -174 206 -307 3 -70 -96 -918 -109
-931 -3 -4 -58 -1 -122 6 -111 12 -116 14 -116 36 0 13 22 207 50 431 27 224
50 420 50 435 0 121 -174 162 -223 52 -8 -16 -38 -226 -67 -465 -29 -239 -54
-437 -56 -439 -1 -2 -57 2 -123 9 -113 12 -121 14 -120 34 0 12 24 212 53 446
36 288 50 435 44 455 -18 67 -107 105 -167 73 -56 -30 -57 -37 -115 -507 -30
-244 -57 -446 -60 -449 -3 -3 -59 1 -123 9 -116 14 -118 14 -116 39 1 14 25
219 54 455 35 293 58 447 71 482 21 58 102 153 152 181 74 41 120 52 201 49
62 -3 94 -9 140 -31z m-4334 -11 c69 -18 179 -70 179 -85 0 -9 -71 -175 -91
-212 -9 -18 -12 -18 -27 -5 -31 27 -97 55 -159 67 -166 33 -341 -59 -416 -218
-29 -61 -32 -76 -32 -162 0 -88 3 -101 33 -162 78 -159 245 -248 408 -219 81
15 174 63 219 112 20 22 38 39 40 37 2 -1 38 -46 80 -98 l76 -95 -56 -51
c-136 -126 -337 -183 -524 -150 -259 46 -462 243 -515 499 -20 97 -20 169 0
260 59 260 258 449 522 497 63 12 187 4 263 -15z m5457 -152 c61 -15 112 -32
112 -39 0 -6 -21 -98 -46 -204 -49 -206 -50 -239 -13 -311 21 -43 80 -96 125
-115 47 -20 141 -17 189 5 49 22 96 68 118 113 8 18 34 114 57 213 23 99 45
184 49 188 6 6 228 -38 239 -48 8 -7 -102 -424 -124 -467 -74 -146 -216 -247
-377 -267 -46 -5 -51 -9 -58 -36 -4 -16 -24 -100 -44 -186 l-36 -156 -115 28
c-64 15 -118 30 -121 33 -3 3 13 83 36 178 23 95 41 179 41 185 0 7 -14 19
-30 28 -52 27 -138 123 -174 195 -40 80 -61 190 -52 263 10 72 96 427 104 427
4 0 58 -12 120 -27z m-6777 -93 c80 -24 147 -66 209 -131 87 -90 101 -130 201
-549 49 -211 87 -386 82 -390 -9 -9 -226 -60 -231 -55 -2 2 -16 55 -31 117
-24 99 -29 113 -46 110 -21 -3 -449 -104 -452 -106 -1 -1 11 -54 26 -119 16
-64 28 -117 27 -118 -18 -9 -233 -56 -238 -51 -11 11 -179 732 -185 792 -16
170 99 384 247 460 121 63 270 78 391 40z m4534 -2129 c1140 -68 1949 -172
2700 -347 157 -37 436 -112 443 -119 10 -10 -309 -494 -491 -745 -210 -290
-385 -496 -617 -729 -355 -356 -724 -652 -1550 -1242 -195 -139 -629 -451
-965 -693 -335 -242 -617 -440 -625 -440 -8 0 -276 189 -595 419 -319 230
-769 553 -1000 718 -847 605 -1179 871 -1540 1233 -271 271 -475 520 -766 936
-133 190 -349 522 -349 536 0 17 404 120 727 186 752 154 1638 254 2643 296
265 11 1761 4 1985 -9z"/>
<path d="M1998 8553 c7 -3 16 -2 19 1 4 3 -2 6 -13 5 -11 0 -14 -3 -6 -6z"/>
<path d="M7430 7166 l0 -366 88 0 c148 0 249 45 324 145 51 68 72 133 72 226
-1 139 -80 260 -212 322 -56 26 -80 31 -169 35 l-103 5 0 -367z"/>
<path d="M6377 7486 c-80 -29 -137 -93 -156 -174 -8 -38 1 -298 11 -308 6 -5
470 25 476 31 3 3 1 69 -5 148 -11 162 -25 202 -93 259 -65 56 -152 72 -233
44z"/>
<path d="M4003 7155 c-77 -39 -133 -126 -133 -208 0 -26 57 -286 65 -295 1 -1
107 22 234 53 128 30 234 55 235 55 7 0 -63 268 -77 295 -22 42 -75 91 -119
109 -58 25 -145 21 -205 -9z"/>
</g>
</svg>
